<svg width="60" height="60" viewBox="0 0 60 60" fill="none" xmlns="http://www.w3.org/2000/svg">
<circle cx="30" cy="30" r="30" fill="white"/>
<path d="M32.0996 39.2984L37.1996 44.0984L45.6996 34.8984" stroke="#0063A3" stroke-width="2" stroke-miterlimit="10"/>
<path d="M29 41H16V17H46V32" stroke="#0063A3" stroke-width="2" stroke-miterlimit="10"/>
<path d="M15 45H29" stroke="#0063A3" stroke-width="2" stroke-miterlimit="10"/>
<path d="M41 14V20" stroke="#0063A3" stroke-width="2" stroke-miterlimit="10"/>
<path d="M34.3008 14V20" stroke="#0063A3" stroke-width="2" stroke-miterlimit="10"/>
<path d="M27.6992 14V20" stroke="#0063A3" stroke-width="2" stroke-miterlimit="10"/>
<path d="M21 14V20" stroke="#0063A3" stroke-width="2" stroke-miterlimit="10"/>
<path d="M16 23H46" stroke="#0063A3" stroke-width="2" stroke-miterlimit="10"/>
<path d="M32 28H34" stroke="#0063A3" stroke-width="2" stroke-miterlimit="10"/>
<path d="M36 28H38" stroke="#0063A3" stroke-width="2" stroke-miterlimit="10"/>
<path d="M40 28H42" stroke="#0063A3" stroke-width="2" stroke-miterlimit="10"/>
<path d="M20 32H22" stroke="#0063A3" stroke-width="2" stroke-miterlimit="10"/>
<path d="M24 32H26" stroke="#0063A3" stroke-width="2" stroke-miterlimit="10"/>
<path d="M28 32H30" stroke="#0063A3" stroke-width="2" stroke-miterlimit="10"/>
<path d="M20 36H22" stroke="#0063A3" stroke-width="2" stroke-miterlimit="10"/>
<path d="M24 36H26" stroke="#0063A3" stroke-width="2" stroke-miterlimit="10"/>
<path d="M28 36H30" stroke="#0063A3" stroke-width="2" stroke-miterlimit="10"/>
<path d="M32 32H34" stroke="#0063A3" stroke-width="2" stroke-miterlimit="10"/>
<path d="M36 32H38" stroke="#0063A3" stroke-width="2" stroke-miterlimit="10"/>
<path d="M40 32H42" stroke="#0063A3" stroke-width="2" stroke-miterlimit="10"/>
</svg>
