<svg width="60" height="60" viewBox="0 0 60 60" fill="none" xmlns="http://www.w3.org/2000/svg">
<circle cx="30" cy="30" r="29" fill="white" stroke="#0063A3" stroke-width="2"/>
<path d="M39 44H29V46H39V44Z" fill="#0063A3"/>
<path d="M37 41H35V45H37V41Z" fill="#0063A3"/>
<path d="M33 41H31V45H33V41Z" fill="#0063A3"/>
<path d="M45 36H23V38H45V36Z" fill="#0063A3"/>
<path d="M36 33H26.586L30.293 29.293L31.707 30.707L31.414 31H36V16H16V31H20V33H16C14.897 33 14 32.103 14 31V16C14 14.897 14.897 14 16 14H36C37.103 14 38 14.897 38 16V31C38 32.103 37.103 33 36 33Z" fill="#0063A3"/>
<path d="M44 42H24C22.897 42 22 41.103 22 40V25C22 23.897 22.897 23 24 23H33.414L29.707 26.707L28.293 25.293L28.586 25H24V40H44V25H40V23H44C45.103 23 46 23.897 46 25V40C46 41.103 45.103 42 44 42Z" fill="#0063A3"/>
</svg>
