<svg width="60" height="60" viewBox="0 0 60 60" fill="none" xmlns="http://www.w3.org/2000/svg">
<circle cx="30" cy="30" r="30" fill="white"/>
<path d="M42 30V32" stroke="#0063A3" stroke-width="2" stroke-miterlimit="10"/>
<path d="M42 42V40" stroke="#0063A3" stroke-width="2" stroke-miterlimit="10"/>
<path d="M45 34V33C45 32.4 44.6 32 44 32H40C39.4 32 39 32.4 39 33V35C39 35.6 39.4 36 40 36H44C44.6 36 45 36.4 45 37V39C45 39.6 44.6 40 44 40H40C39.4 40 39 39.6 39 39V38" stroke="#0063A3" stroke-width="2" stroke-miterlimit="10"/>
<path d="M36.1 37H16V15H44V28" stroke="#0063A3" stroke-width="2" stroke-miterlimit="10"/>
<path d="M45 11H15V15H45V11Z" stroke="#0063A3" stroke-width="2" stroke-miterlimit="10"/>
<path d="M30 41V36.8" stroke="#0063A3" stroke-width="2" stroke-miterlimit="10"/>
<path d="M28 41H31.9" stroke="#0063A3" stroke-width="2" stroke-miterlimit="10"/>
<path d="M19 33L26 26L30 30L40 20" stroke="#0063A3" stroke-width="2" stroke-miterlimit="10"/>
<path d="M36 20H40V24" stroke="#0063A3" stroke-width="2" stroke-miterlimit="10"/>
</svg>
