<svg width="60" height="60" viewBox="0 0 60 60" fill="none" xmlns="http://www.w3.org/2000/svg">
<circle cx="30" cy="29.999" r="29" fill="white" stroke="#0063A3" stroke-width="2"/>
<rect x="14" y="14.998" width="33" height="2" rx="1" fill="#0063A3"/>
<rect x="24" y="15.998" width="13" height="8" rx="1" stroke="#0063A3" stroke-width="2"/>
<path d="M24 28.998C24 28.4458 24.4477 27.998 25 27.998H36C36.5523 27.998 37 28.4458 37 28.998V32.998C37 33.5503 36.5523 33.998 36 33.998H25C24.4477 33.998 24 33.5503 24 32.998V28.998Z" stroke="#0063A3" stroke-width="2"/>
<rect x="28" y="33.998" width="5" height="11" rx="1" stroke="#0063A3" stroke-width="2"/>
<rect x="25" y="24.998" width="2" height="2" fill="#0063A3"/>
<rect x="27" y="30.998" width="2" height="2" fill="#0063A3"/>
<rect x="32" y="30.998" width="2" height="2" fill="#0063A3"/>
<rect x="34" y="24.998" width="2" height="2" fill="#0063A3"/>
</svg>
