<svg width="35" height="31" viewBox="0 0 35 31" fill="none" xmlns="http://www.w3.org/2000/svg">
<path d="M26.6 22.9H11.6C11.5 22.9 11.4 22.8001 11.3 22.7001L4.8 2.00005C4.8 1.90005 4.7 1.80005 4.5 1.80005H1" stroke="#0C0F44" stroke-width="2" stroke-miterlimit="10" stroke-linecap="round"/>
<path d="M14.7 29.5C15.8046 29.5 16.7 28.6046 16.7 27.5C16.7 26.3954 15.8046 25.5 14.7 25.5C13.5954 25.5 12.7 26.3954 12.7 27.5C12.7 28.6046 13.5954 29.5 14.7 29.5Z" stroke="#0C0F44" stroke-width="2" stroke-miterlimit="10" stroke-linecap="round"/>
<path d="M23.2 29.5C24.3046 29.5 25.2 28.6046 25.2 27.5C25.2 26.3954 24.3046 25.5 23.2 25.5C22.0954 25.5 21.2 26.3954 21.2 27.5C21.2 28.6046 22.0954 29.5 23.2 29.5Z" stroke="#0C0F44" stroke-width="2" stroke-miterlimit="10" stroke-linecap="round"/>
<path d="M19.1 6.19995H6.29999" stroke="#0C0F44" stroke-width="2" stroke-miterlimit="10" stroke-linecap="round"/>
<path d="M10.1 18.7H24C25.5 18.7 26.7 17.6 26.9 16.2L26.8 15.2" stroke="#0C0F44" stroke-width="2" stroke-miterlimit="10" stroke-linecap="round"/>
</svg>
