<svg width="12" height="12" viewBox="0 0 12 12" fill="none" xmlns="http://www.w3.org/2000/svg">
<line x1="1.41421" y1="2" x2="10" y2="10.5858" stroke="#0063A3" stroke-width="2" stroke-linecap="round"/>
<line x1="1" y1="-1" x2="13.1421" y2="-1" transform="matrix(-0.707107 0.707107 0.707107 0.707107 11.8184 2)" stroke="#0063A3" stroke-width="2" stroke-linecap="round"/>
</svg>
