<svg width="16" height="20" viewBox="0 0 16 20" fill="none" xmlns="http://www.w3.org/2000/svg">
<path d="M14.4948 11.6444C15.6436 10.8491 15.6436 9.15091 14.4948 8.3556L4.13061 1.18055C2.80415 0.262246 0.992205 1.21163 0.992205 2.82494L0.992205 17.1751C0.992205 18.7884 2.80414 19.7378 4.13061 18.8195L14.4948 11.6444Z" fill="#E96311"/>
</svg>
