<svg width="15" height="18" viewBox="0 0 15 18" fill="none" xmlns="http://www.w3.org/2000/svg">
<path fill-rule="evenodd" clip-rule="evenodd" d="M11.2134 14.7549C13.1896 12.4094 14.4 9.8293 14.4 7.2C14.4 3.22355 11.1764 0 7.2 0C3.22355 0 0 3.22355 0 7.2C0 9.8293 1.21037 12.4094 3.18662 14.7549C4.6428 16.4832 6.47803 18 7.2 18C7.92197 18 9.7572 16.4832 11.2134 14.7549ZM6.59199 15.6188C5.92811 15.0701 5.21469 14.3684 4.56315 13.5951C2.83563 11.5448 1.8 9.33718 1.8 7.2C1.8 4.21766 4.21766 1.8 7.2 1.8C10.1823 1.8 12.6 4.21766 12.6 7.2C12.6 9.33718 11.5644 11.5448 9.83685 13.5951C9.18531 14.3684 8.47189 15.0701 7.80801 15.6188C7.57924 15.8079 7.2 16.0869 7.2 16.0869C7.2 16.0869 6.859 15.8395 6.59199 15.6188ZM4.5 7.2C4.5 5.70883 5.70883 4.5 7.2 4.5C8.69117 4.5 9.9 5.70883 9.9 7.2C9.9 8.69117 8.69117 9.9 7.2 9.9C5.70883 9.9 4.5 8.69117 4.5 7.2ZM8.1 7.2C8.1 6.70294 7.69706 6.3 7.2 6.3C6.70294 6.3 6.3 6.70294 6.3 7.2C6.3 7.69706 6.70294 8.1 7.2 8.1C7.69706 8.1 8.1 7.69706 8.1 7.2Z" fill="#E96311"/>
</svg>
