<svg width="21" height="24" viewBox="0 0 21 24" fill="none" xmlns="http://www.w3.org/2000/svg">
<path d="M1.28512 23.8461C0.652622 23.8461 0.230957 23.4245 0.230957 22.792V3.28994C0.230957 2.13036 0.863455 1.0762 1.8122 0.54912C2.76095 0.0220383 4.02594 0.0220383 4.97469 0.54912L18.6788 8.45534C19.6276 8.98242 20.26 10.0366 20.26 11.1962C20.26 12.3557 19.6276 13.4099 18.6788 13.937L6.02885 21.3161C5.50177 21.6324 4.86927 21.4215 4.55302 20.8945C4.23677 20.3674 4.44761 19.7349 4.97469 19.4186L17.6246 12.0395C18.1517 11.7232 18.1517 11.3016 18.1517 11.0907C18.1517 10.8799 18.1517 10.4583 17.6246 10.142L3.92053 2.23578C3.39345 1.91953 2.97178 2.13036 2.86636 2.23578C2.76095 2.44661 2.33928 2.76286 2.33928 3.28994V22.792C2.33928 23.4245 1.91762 23.8461 1.28512 23.8461Z" fill="white"/>
</svg>
