<svg width="292" height="206" viewBox="0 0 292 206" fill="none" xmlns="http://www.w3.org/2000/svg">
<circle cx="146" cy="103" r="93" fill="white" stroke="#E2E2EC" stroke-width="20"/>
<path d="M79.1445 117.426H93.9922V133.422H79.1445V160H59.2109V133.422H7.61328L7.03906 121.281L58.5547 40.5625H79.1445V117.426ZM27.957 117.426H59.2109V67.5508L57.7344 70.1758L27.957 117.426ZM185.047 109.715C185.047 126.887 181.82 139.848 175.367 148.598C168.969 157.293 159.207 161.641 146.082 161.641C133.176 161.641 123.441 157.402 116.879 148.926C110.371 140.395 107.035 127.789 106.871 111.109V90.4375C106.871 73.2656 110.07 60.3867 116.469 51.8008C122.922 43.2148 132.738 38.9219 145.918 38.9219C158.988 38.9219 168.723 43.1055 175.121 51.4727C181.574 59.8398 184.883 72.3633 185.047 89.043V109.715ZM165.113 87.4023C165.113 76.1914 163.582 67.9883 160.52 62.793C157.457 57.543 152.59 54.918 145.918 54.918C139.41 54.918 134.625 57.4062 131.562 62.3828C128.5 67.3047 126.887 75.0156 126.723 85.5156V112.586C126.723 123.742 128.281 132.055 131.398 137.523C134.516 142.992 139.41 145.727 146.082 145.727C152.48 145.727 157.211 143.211 160.273 138.18C163.336 133.094 164.949 125.164 165.113 114.391V87.4023ZM270.113 117.426H284.961V133.422H270.113V160H250.18V133.422H198.582L198.008 121.281L249.523 40.5625H270.113V117.426ZM218.926 117.426H250.18V67.5508L248.703 70.1758L218.926 117.426Z" fill="#0C0F44"/>
</svg>
