<svg width="30" height="26" viewBox="0 0 30 26" fill="none" xmlns="http://www.w3.org/2000/svg">
<path d="M15.9236 19.589L20.3746 23.7781L27.7927 15.749" stroke="#0C0F44" stroke-width="2" stroke-miterlimit="10"/>
<path d="M13.2182 17.5821H1.87274V1.87305H28.0546V13.2185" stroke="#0C0F44" stroke-width="2" stroke-miterlimit="10"/>
<path d="M27.4436 2.39648L14.9636 10.6001L2.57092 2.48376" stroke="#0C0F44" stroke-width="2" stroke-miterlimit="10"/>
</svg>
