<svg width="46" height="30" viewBox="0 0 46 30" fill="none" xmlns="http://www.w3.org/2000/svg">
<path d="M28.1703 0.789062L15.5703 13.3891L18.535 15.9832L30.3938 3.01259L28.1703 0.789062Z" fill="#F38119"/>
<path d="M15.8591 2.02682L2.25107 14.274C2.08397 14.4244 1.92943 14.5882 1.78899 14.7638C1.06802 15.665 1.70966 17 2.86378 17H7V19H13V17H16.2557C17.368 17 18.43 16.5369 19.1869 15.7218L29.654 4.44957C30.4053 3.64046 30.382 2.38199 29.6012 1.60124C29.2163 1.21627 28.6941 1 28.1497 1H18.5349C17.5468 1 16.5936 1.36578 15.8591 2.02682Z" stroke="white" stroke-width="2"/>
<path d="M3.5 13H13.9998C15.6566 13 16.9998 14.3431 16.9998 16V16" stroke="white" stroke-width="2"/>
<path d="M43.3637 11.1641L30.3931 24.1347L32.246 27.8405L44.4754 15.6111L43.3637 11.1641Z" fill="#F38119"/>
<path d="M24.9995 25.9882H20.664C19.3539 25.9882 18.4293 24.7039 18.8451 23.4615C18.9464 23.1586 19.1218 22.8859 19.3553 22.668L33.4232 9.53789C33.7935 9.19224 34.2813 9 34.7878 9H39.7274C42.6391 9 44.9995 11.3604 44.9995 14.2721C44.9995 14.7382 44.8144 15.1851 44.4848 15.5147L31.5853 28.4142C31.2102 28.7893 30.7015 29 30.1711 29H26.9995C25.8949 29 24.9995 28.1046 24.9995 27V25.9882Z" stroke="white" stroke-width="2"/>
<path d="M19.9995 22H24.9995C28.3132 22 30.9995 24.6863 30.9995 28V28" stroke="white" stroke-width="2"/>
</svg>
